{
	"root": {
		"src": "./src",
		"dest": "./dist"
	},

	"tasks": {

		"active": ["html", "css", "js", "images", "static", "iconFont", "svgSprite"],

		"browserSync": {
			"server": {
				"baseDir": "dist"
			},
			"proxy": "http://192.168.1.xx/path",
			"open": "external"
		},

		"html": {
			"src": "html",
			"dest": "./",
			"extensions": ["html", "pug", "json", "php"]
		},

		"css": {
			"src": "css",
			"dest": "css",
			"extensions": ["sass", "scss", "css"]
		},

		"js": {
			"src": "js",
			"dest": "js",
			"extensions": ["js", "json"],
			"output": "./app.js"
		},

		"static": {
			"src": "static",
			"dest": "./"
		},

		"images": {
			"src": "img",
			"dest": "img",
			"extensions": ["jpg", "png", "svg", "gif"]
		},

		"fonts": {
			"src": "fonts",
			"dest": "fonts",
			"extensions": ["woff2", "woff", "eot", "ttf", "svg"]
		},

		"iconFont": {
			"src": "icons",
			"dest": "fonts",
			"extensions": ["woff2", "woff", "eot", "ttf", "svg"]
		},

		"svgSprite": {
			"src": "icons",
			"dest": "images",
			"extensions": ["svg"]
		}
	}
}
